## Interface: 80000
## Title: |cff20ff20Bagnon|r
## Author: Tuller & Jaliborc (João Cardoso)
## Notes: Single window displays for your inventory and bank
## SavedVariables: Bagnon_Sets

## OptionalDeps: BagBrother, ItemRack, Wardrobe, WoWUnit
## Version: 8.0.3

main.lua

external\external.xml
components\components.xml
